Graphs
…
longBallClean %>%  group_by(LongBall, LongBallSuccess) %>% 
  count() %>% spread(LongBallSuccess, n) %>% 
  mutate( `1` = replace_na(`1`,0),
          `2` = replace_na(`2`,0)) %>%
  mutate(Tries = `1`+`2`,
    SuccessRate = `1`/Tries ) %>%
  rename(JerseyNumber = LongBall,
         Successes = `1`,
         Fails = `2`) %>%
  arrange(desc(Successes, SuccessRate))  

## # A tibble: 36 x 5
## # Groups:   JerseyNumber [36]
##    JerseyNumber Successes Fails Tries SuccessRate
##           <int>     <dbl> <dbl> <dbl>       <dbl>
##  1            4        27    19    46       0.587
##  2           20        27    21    48       0.562
##  3           14        23    18    41       0.561
##  4           17        22    27    49       0.449
##  5           24        22    36    58       0.379
##  6            2        21    17    38       0.553
##  7           23        20    26    46       0.435
##  8           26        19    28    47       0.404
##  9           10        17    18    35       0.486
## 10            6        16    13    29       0.552
## # ... with 26 more rows
…
keyPassClean %>%  group_by(KeyPass) %>% 
  count() %>% rename(JerseyNumber = KeyPass, numberOfKeyPasses = n) %>% arrange(desc(numberOfKeyPasses))

## # A tibble: 27 x 2
## # Groups:   JerseyNumber [27]
##    JerseyNumber numberOfKeyPasses
##           <int>             <int>
##  1           NA               389
##  2           10                47
##  3           26                35
##  4           14                19
##  5            4                18
##  6           19                15
##  7            5                13
##  8           13                13
##  9           12                12
## 10           17                12
## # ... with 17 more rows
…
takeOnClean %>%  group_by(TakeOn, TakeOnSuccess) %>% 
  count() %>% spread(TakeOnSuccess, n) %>% 
  mutate( `1` = replace_na(`1`,0),
          `2` = replace_na(`2`,0)) %>%
  mutate(Tries = `1`+`2`,
    SuccessRate = `1`/Tries ) %>%
  rename(JerseyNumber = TakeOn,
         Successes = `1`,
         Fails = `2`) %>%
  arrange(desc(Successes, SuccessRate))  

## # A tibble: 25 x 6
## # Groups:   JerseyNumber [25]
##    JerseyNumber Successes Fails `<NA>` Tries SuccessRate
##           <int>     <dbl> <dbl>  <int> <dbl>       <dbl>
##  1           10        31     8     NA    39       0.795
##  2           26        19     9     NA    28       0.679
##  3            3        11     3     NA    14       0.786
##  4           12         9     1     NA    10       0.9  
##  5           13         9     2     NA    11       0.818
##  6           17         9     0     NA     9       1    
##  7           19         9     3     NA    12       0.75 
##  8           24         5     3     NA     8       0.625
##  9            5         4     0     NA     4       1    
## 10           37         4     0     NA     4       1    
## # ... with 15 more rows
…
stealClean %>%  group_by(Steal, StealHow) %>% 
  count() %>% spread(StealHow, n) %>% 
  mutate( `1` = replace_na(`1`,0),
          `2` = replace_na(`2`,0)) %>% mutate(Total = `1` + `2`) %>%
  rename(JerseyNumber = Steal,
      Foot = `1`,
         Head = `2`) %>%
  arrange(desc(Total)) 

## # A tibble: 33 x 6
## # Groups:   JerseyNumber [33]
##    JerseyNumber  Foot  Head  `29` `<NA>` Total
##           <int> <dbl> <dbl> <int>  <int> <dbl>
##  1            4    31    25    NA     NA    56
##  2           24    16    17    NA     NA    33
##  3            3    26     6    NA     NA    32
##  4           20    22     7    NA     NA    29
##  5            2    13    12    NA     NA    25
##  6            6    12    11    NA     NA    23
##  7           17    14     8    NA     NA    22
##  8           23    13     9    NA     NA    22
##  9           32    11     6    NA     NA    17
## 10           11     2    14    NA     NA    16
## # ... with 23 more rows
…
tackleClean %>%  group_by(Tackle, TackleHow) %>% 
  count() %>% spread(TackleHow, n) %>% 
  mutate( `1` = replace_na(`1`,0),
          `2` = replace_na(`2`,0)) %>% mutate(Total = `1` + `2`) %>%
  rename(JerseyNumber = Tackle,
      Standing = `1`,
         Sliding = `2`) %>%
  arrange(desc(Total)) 

## # A tibble: 31 x 5
## # Groups:   JerseyNumber [31]
##    JerseyNumber Standing Sliding `<NA>` Total
##           <int>    <dbl>   <dbl>  <int> <dbl>
##  1           23       33      13     NA    46
##  2            4       34       1     NA    35
##  3           20       27       6     NA    33
##  4           16       20       7     NA    27
##  5           24       24       1     NA    25
##  6            2       17       6     NA    23
##  7            6       13       1     NA    14
##  8           13       13       0     NA    13
##  9            3       10       2     NA    12
## 10           17        8       3     NA    11
## # ... with 21 more rows
…
turnoverClean %>%  group_by(Turnover, TurnoverHow) %>% 
  count() %>% spread(TurnoverHow, n) %>% 
  mutate( `1` = replace_na(`1`,0),
          `2` = replace_na(`2`,0)) %>% mutate(Total = `1` + `2`) %>%
  rename(JerseyNumber = Turnover,
      Pass = `1`,
         Standing = `2`) %>%
  arrange(desc(Total)) 

## # A tibble: 22 x 5
## # Groups:   JerseyNumber [22]
##    JerseyNumber  Pass Standing `<NA>` Total
##           <int> <dbl>    <dbl>  <int> <dbl>
##  1           26     9       17     NA    26
##  2           10     6       10     NA    16
##  3            5     5        9     NA    14
##  4           24     4        4     NA     8
##  5           17     3        4     NA     7
##  6           14     4        2     NA     6
##  7           19     3        2     NA     5
##  8           12     1        3     NA     4
##  9            4     2        1     NA     3
## 10           13     2        1     NA     3
## # ... with 12 more rows
…
pressureClean %>%  group_by(Pressure, PressureSuccess) %>% 
  count() %>% spread(PressureSuccess, n) %>% 
  mutate( `1` = replace_na(`1`,0),
          `2` = replace_na(`2`,0)) %>%
  mutate(Tries = `1`+`2`,
    SuccessRate = `1`/Tries ) %>%
  rename(JerseyNumber = Pressure,
         Successes = `1`,
         Fails = `2`) %>%
  arrange(desc(Successes, SuccessRate))  

## # A tibble: 28 x 6
## # Groups:   JerseyNumber [28]
##    JerseyNumber Successes Fails `<NA>` Tries SuccessRate
##           <int>     <dbl> <dbl>  <int> <dbl>       <dbl>
##  1            5        14    13     NA    27       0.519
##  2           12        13     5     NA    18       0.722
##  3           14        10     4     NA    14       0.714
##  4           10         6     2     NA     8       0.75 
##  5           26         4     0     NA     4       1    
##  6           13         3     1     NA     4       0.75 
##  7           17         3     0     NA     3       1    
##  8           23         3     0     NA     3       1    
##  9           58         3     2     NA     5       0.6  
## 10            4         2     0     NA     2       1    
## # ... with 18 more rows
…
